<svg xmlns="http://www.w3.org/2000/svg" width="106" height="106" fill="none" viewBox="0 0 106 106">
    <path fill="#F4F6F3" fill-rule="evenodd" d="M53 106c29.271 0 53-23.729 53-53S82.271 0 53 0 0 23.729 0 53s23.729 53 53 53z" clip-rule="evenodd"/>
    <rect width="3" height="47.5" x="76" y="29" fill="#3B4630" rx="1.5" transform="rotate(90 76 29)"/>
    <rect width="7" height="55" x="49" y="20" fill="#89977B" rx="2"/>
    <rect width="32" height="7" x="37" y="73" fill="#3B4630" rx="2"/>
    <path stroke="#89977B" stroke-width="2" d="M18.23 55.337L28.85 32l11.305 23.337"/>
    <rect width="7.433" height="2.23" x="30.123" y="47.904" fill="#586549" rx="1.115" transform="rotate(90 30.123 47.904)"/>
    <path fill="#586549" d="M28.927 50.877c-.624-3.566-1.404-12.839 11.231-14.123 2.808 5.992.75 14.123-11.23 14.123z"/>
    <path fill="#586549" d="M29.85 50.877c.587-3.566 1.322-12.839-10.57-14.123-2.643 5.992-.706 14.123 10.57 14.123z"/>
    <path fill="#89977B" d="M41.27 55.337H17.484c0 4.46 2.9 9.663 11.522 9.663s12.264-5.203 12.264-9.663z"/>
    <rect width="26.759" height="2.23" x="16" y="54.594" fill="#2B2322" rx="1.115"/>
    <path stroke="#89977B" stroke-width="2" d="M65.23 55.337L75.85 32l11.305 23.337"/>
    <rect width="7.433" height="2.23" x="77.123" y="47.904" fill="#586549" rx="1.115" transform="rotate(90 77.123 47.904)"/>
    <path fill="#586549" d="M75.927 50.877c-.624-3.566-1.404-12.839 11.231-14.123 2.808 5.992.75 14.123-11.23 14.123z"/>
    <path fill="#586549" d="M76.85 50.877c.587-3.566 1.322-12.839-10.57-14.123-2.643 5.992-.706 14.123 10.57 14.123z"/>
    <path fill="#89977B" d="M88.27 55.337H64.484c0 4.46 2.9 9.663 11.522 9.663s12.264-5.203 12.264-9.663z"/>
    <rect width="26.759" height="2.23" x="63" y="54.594" fill="#2B2322" rx="1.115"/>
</svg>
