<svg xmlns="http://www.w3.org/2000/svg" width="94" height="94" fill="none" viewBox="0 0 94 94">
    <path fill="#F4F6F3" fill-rule="evenodd" d="M47 94c25.957 0 47-21.043 47-47S72.957 0 47 0 0 21.043 0 47s21.043 47 47 47z" clip-rule="evenodd"/>
    <path fill="#586549" d="M49.172 52.392v8.29c0 2.74 0 2.674-2.602 2.74-.046.002-.092.002-.139 0h-9.043L31.358 70l-1.507-6.577h-4.11c-2.741 0-2.741 0-2.741-2.74V47.938c0-2.74 0-2.74 2.74-2.74h7.331v1.712c0 3.027 2.454 5.481 5.482 5.481h10.62z"/>
    <path fill="#89977B" d="M48.967 52.666h-10.62c-5.48 0-5.48 0-5.48-5.48V28.48c0-5.481 0-5.481 5.48-5.481H70c5.481 0 5.481 0 5.481 5.481v18.704c0 5.481 0 5.481-5.48 5.481h-5.619l-2.466 10.757-9.797-10.757h-3.152z"/>
    <path fill="#fff" d="M56.571 34.99H40.128c-.757 0-1.37-.614-1.37-1.37 0-.757.613-1.37 1.37-1.37h16.443c.757 0 1.37.613 1.37 1.37 0 .756-.613 1.37-1.37 1.37zM67.533 43.211H40.128c-.757 0-1.37-.613-1.37-1.37 0-.757.613-1.37 1.37-1.37h27.405c.757 0 1.37.613 1.37 1.37 0 .757-.613 1.37-1.37 1.37z"/>
</svg>
