<svg xmlns="http://www.w3.org/2000/svg" width="43" height="44" viewBox="0 0 43 44">
    <g fill="none" fill-rule="evenodd" transform="translate(0 .03)">
        <rect width="43" height="43" fill="#53594F" rx="4"/>
        <g>
            <path d="M0 0L28 0 28 28 0 28z" transform="translate(7.5 7.5)"/>
            <path fill="#FFF" fill-rule="nonzero" stroke="#3A3F37" stroke-width=".4" d="M14 10.5c-1.933 0-3.5 1.567-3.5 3.5s1.567 3.5 3.5 3.5 3.5-1.567 3.5-3.5-1.567-3.5-3.5-3.5zm0-2.333c3.222 0 5.833 2.611 5.833 5.833S17.222 19.833 14 19.833 8.167 17.222 8.167 14 10.778 8.167 14 8.167h0zm7.583-.292c0 .805-.653 1.458-1.458 1.458-.805 0-1.458-.653-1.458-1.458 0-.805.653-1.458 1.458-1.458.805 0 1.458.653 1.458 1.458zM14 4.667c-2.886 0-3.358.008-4.7.067-.915.043-1.529.166-2.098.388-.506.196-.872.43-1.26.82-.365.353-.646.783-.822 1.26-.221.572-.344 1.184-.386 2.098-.06 1.287-.067 1.738-.067 4.7 0 2.886.008 3.358.067 4.7.043.914.166 1.529.386 2.097.199.508.432.873.82 1.26.393.392.758.627 1.26.82.576.223 1.19.347 2.1.389 1.287.06 1.738.067 4.7.067 2.886 0 3.358-.008 4.7-.067.913-.043 1.528-.166 2.097-.386.505-.198.873-.432 1.26-.82.393-.393.628-.758.821-1.26.222-.575.346-1.19.388-2.1.06-1.287.067-1.738.067-4.7 0-2.886-.008-3.358-.067-4.7-.043-.913-.166-1.529-.388-2.098-.175-.476-.456-.907-.82-1.26-.352-.366-.783-.646-1.26-.822-.571-.221-1.185-.344-2.097-.386-1.288-.06-1.739-.067-4.701-.067zm0-2.334c3.17 0 3.565.012 4.809.07 1.242.059 2.088.253 2.833.543.77.296 1.418.697 2.067 1.345.593.583 1.052 1.289 1.345 2.067.288.744.484 1.59.543 2.833.054 1.244.07 1.64.07 4.809 0 3.17-.012 3.565-.07 4.809-.059 1.242-.255 2.088-.543 2.833-.292.779-.751 1.484-1.345 2.067-.583.593-1.289 1.052-2.067 1.345-.744.288-1.59.484-2.833.543-1.244.054-1.64.07-4.809.07-3.17 0-3.565-.012-4.809-.07-1.243-.059-2.088-.255-2.833-.543-.779-.292-1.484-.751-2.067-1.345-.593-.583-1.052-1.289-1.345-2.067-.29-.744-.484-1.59-.543-2.833-.054-1.244-.07-1.64-.07-4.809 0-3.17.012-3.565.07-4.809.059-1.244.253-2.088.543-2.833.292-.779.75-1.484 1.345-2.067.583-.594 1.289-1.053 2.067-1.345.745-.29 1.59-.484 2.833-.543 1.244-.054 1.64-.07 4.809-.07z" transform="translate(7.5 7.5)"/>
        </g>
    </g>
</svg>
