<svg xmlns="http://www.w3.org/2000/svg" width="367" height="398" fill="none" viewBox="0 0 367 398">
    <path fill="#929E88" fill-rule="evenodd" d="M183.251 398c101.206 0 183.25-82.044 183.25-183.251 0-101.206-65.975-289.485-183.25-183.25C65.975 137.734 0 113.543 0 214.749 0 315.956 82.044 398 183.251 398z" clip-rule="evenodd" opacity=".086"/>
</svg>
